\relax 
\providecommand\hyper@newdestlabel[2]{}
\providecommand\HyperFirstAtBeginDocument{\AtBeginDocument}
\HyperFirstAtBeginDocument{\ifx\hyper@anchor\@undefined
\global\let\oldcontentsline\contentsline
\gdef\contentsline#1#2#3#4{\oldcontentsline{#1}{#2}{#3}}
\global\let\oldnewlabel\newlabel
\gdef\newlabel#1#2{\newlabelxx{#1}#2}
\gdef\newlabelxx#1#2#3#4#5#6{\oldnewlabel{#1}{{#2}{#3}}}
\AtEndDocument{\ifx\hyper@anchor\@undefined
\let\contentsline\oldcontentsline
\let\newlabel\oldnewlabel
\fi}
\fi}
\global\let\hyper@last\relax 
\gdef\HyperFirstAtBeginDocument#1{#1}
\providecommand\HyField@AuxAddToFields[1]{}
\providecommand\HyField@AuxAddToCoFields[2]{}
\@writefile{toc}{\beamer@endinputifotherversion {3.36pt}}
\@writefile{nav}{\beamer@endinputifotherversion {3.36pt}}
\@writefile{nav}{\headcommand {\slideentry {0}{0}{1}{1/1}{}{0}}}
\@writefile{nav}{\headcommand {\beamer@framepages {1}{1}}}
\@writefile{nav}{\headcommand {\slideentry {0}{0}{2}{2/2}{}{0}}}
\@writefile{nav}{\headcommand {\beamer@framepages {2}{2}}}
\@writefile{toc}{\beamer@sectionintoc {1}{Einf\"uhrung}{3}{0}{1}}
\@writefile{nav}{\headcommand {\sectionentry {1}{Einf\"uhrung}{3}{Einf\"uhrung}{0}}}
\@writefile{nav}{\headcommand {\beamer@sectionpages {1}{2}}}
\@writefile{nav}{\headcommand {\beamer@subsectionpages {1}{2}}}
\@writefile{nav}{\headcommand {\slideentry {1}{0}{1}{3/3}{}{0}}}
\@writefile{nav}{\headcommand {\beamer@framepages {3}{3}}}
\@writefile{nav}{\headcommand {\slideentry {1}{0}{2}{4/8}{}{0}}}
\@writefile{nav}{\headcommand {\beamer@framepages {4}{8}}}
\@writefile{toc}{\beamer@sectionintoc {2}{Definitionen}{9}{0}{2}}
\@writefile{nav}{\headcommand {\sectionentry {2}{Definitionen}{9}{Definitionen}{0}}}
\@writefile{nav}{\headcommand {\beamer@sectionpages {3}{8}}}
\@writefile{nav}{\headcommand {\beamer@subsectionpages {3}{8}}}
\@writefile{nav}{\headcommand {\slideentry {2}{0}{1}{9/9}{}{0}}}
\@writefile{nav}{\headcommand {\beamer@framepages {9}{9}}}
\@writefile{toc}{\beamer@subsectionintoc {2}{1}{Arena}{10}{0}{2}}
\@writefile{nav}{\headcommand {\beamer@subsectionentry {0}{2}{1}{10}{Arena}}\headcommand {\beamer@subsectionpages {9}{9}}}
\@writefile{nav}{\headcommand {\slideentry {2}{1}{1}{10/14}{Arena}{0}}}
\@writefile{nav}{\headcommand {\beamer@framepages {10}{14}}}
\@writefile{toc}{\beamer@subsectionintoc {2}{2}{Partie}{15}{0}{2}}
\@writefile{nav}{\headcommand {\beamer@subsectionentry {0}{2}{2}{15}{Partie}}\headcommand {\beamer@subsectionpages {10}{14}}}
\@writefile{nav}{\headcommand {\slideentry {2}{2}{1}{15/20}{Partie}{0}}}
\@writefile{nav}{\headcommand {\beamer@framepages {15}{20}}}
\@writefile{toc}{\beamer@subsectionintoc {2}{3}{Gewinnen}{21}{0}{2}}
\@writefile{nav}{\headcommand {\beamer@subsectionentry {0}{2}{3}{21}{Gewinnen}}\headcommand {\beamer@subsectionpages {15}{20}}}
\@writefile{nav}{\headcommand {\slideentry {2}{3}{1}{21/26}{Gewinnen}{0}}}
\@writefile{nav}{\headcommand {\beamer@framepages {21}{26}}}
\@writefile{toc}{\beamer@sectionintoc {3}{Gewinnbedingungen}{27}{0}{3}}
\@writefile{nav}{\headcommand {\sectionentry {3}{Gewinnbedingungen}{27}{Gewinnbedingungen}{0}}}
\@writefile{nav}{\headcommand {\beamer@sectionpages {9}{26}}}
\@writefile{nav}{\headcommand {\beamer@subsectionpages {21}{26}}}
\@writefile{nav}{\headcommand {\slideentry {3}{0}{1}{27/27}{}{0}}}
\@writefile{nav}{\headcommand {\beamer@framepages {27}{27}}}
\@writefile{nav}{\headcommand {\slideentry {3}{0}{2}{28/29}{}{0}}}
\@writefile{nav}{\headcommand {\beamer@framepages {28}{29}}}
\@writefile{nav}{\headcommand {\slideentry {3}{0}{3}{30/37}{}{0}}}
\@writefile{nav}{\headcommand {\beamer@framepages {30}{37}}}
\@writefile{toc}{\beamer@sectionintoc {4}{Strategien}{38}{0}{4}}
\@writefile{nav}{\headcommand {\sectionentry {4}{Strategien}{38}{Strategien}{0}}}
\@writefile{nav}{\headcommand {\beamer@sectionpages {27}{37}}}
\@writefile{nav}{\headcommand {\beamer@subsectionpages {27}{37}}}
\@writefile{nav}{\headcommand {\slideentry {4}{0}{1}{38/38}{}{0}}}
\@writefile{nav}{\headcommand {\beamer@framepages {38}{38}}}
\@writefile{nav}{\headcommand {\slideentry {4}{0}{2}{39/41}{}{0}}}
\@writefile{nav}{\headcommand {\beamer@framepages {39}{41}}}
\@writefile{nav}{\headcommand {\slideentry {4}{0}{3}{42/48}{}{0}}}
\@writefile{nav}{\headcommand {\beamer@framepages {42}{48}}}
\@writefile{nav}{\headcommand {\slideentry {4}{0}{4}{49/50}{}{0}}}
\@writefile{nav}{\headcommand {\beamer@framepages {49}{50}}}
\@writefile{toc}{\beamer@sectionintoc {5}{Konklusion}{51}{0}{5}}
\@writefile{nav}{\headcommand {\sectionentry {5}{Konklusion}{51}{Konklusion}{0}}}
\@writefile{nav}{\headcommand {\beamer@sectionpages {38}{50}}}
\@writefile{nav}{\headcommand {\beamer@subsectionpages {38}{50}}}
\@writefile{nav}{\headcommand {\slideentry {5}{0}{1}{51/51}{}{0}}}
\@writefile{nav}{\headcommand {\beamer@framepages {51}{51}}}
\@writefile{nav}{\headcommand {\slideentry {5}{0}{2}{52/52}{}{0}}}
\@writefile{nav}{\headcommand {\beamer@framepages {52}{52}}}
\@writefile{nav}{\headcommand {\beamer@partpages {1}{52}}}
\@writefile{nav}{\headcommand {\beamer@subsectionpages {51}{52}}}
\@writefile{nav}{\headcommand {\beamer@sectionpages {51}{52}}}
\@writefile{nav}{\headcommand {\beamer@documentpages {52}}}
\@writefile{nav}{\headcommand {\def \inserttotalframenumber {17}}}
