\relax 
\catcode `"\active 
\select@language{german}
\@writefile{toc}{\select@language{german}}
\@writefile{lof}{\select@language{german}}
\@writefile{lot}{\select@language{german}}
\@writefile{toc}{\contentsline {section}{\numberline {1}Einleitung}{2}}
\@writefile{toc}{\contentsline {subsection}{\numberline {1.1}Motivation}{2}}
\@writefile{toc}{\contentsline {subsection}{\numberline {1.2}Probleme und Fragen}{2}}
\@writefile{toc}{\contentsline {subsection}{\numberline {1.3}Die Theorie der Iteration von Ensembles}{2}}
\@writefile{toc}{\contentsline {subsection}{\numberline {1.4}Aufbau der Arbeit}{2}}
\@writefile{toc}{\contentsline {section}{\numberline {2}Infinite Games}{2}}
\newlabel{sec:infgames}{{2}{2}}
\@writefile{toc}{\contentsline {subsection}{\numberline {2.1}Arena}{2}}
\@writefile{toc}{\contentsline {subsection}{\numberline {2.2}Spielz\"uge}{2}}
\@writefile{toc}{\contentsline {subsection}{\numberline {2.3}Spiele und wie wir gewinnen}{2}}
\@writefile{toc}{\contentsline {subsection}{\numberline {2.4}Gewinnbedingungen}{3}}
\@writefile{toc}{\contentsline {subsection}{\numberline {2.5}Strategien und Determinismus}{3}}
\@writefile{toc}{\contentsline {subsection}{\numberline {2.6}Transformation von Gewinnbedingungen}{4}}
\@writefile{toc}{\contentsline {subsection}{\numberline {2.7}Determinismus}{4}}
\@writefile{toc}{\contentsline {subsection}{\numberline {2.8}Vergessende und Speicherlose Strategien}{4}}
\@writefile{toc}{\contentsline {section}{\numberline {3}L\"osen von Spielen mit simplen Gewinnbedingungen}{5}}
\@writefile{toc}{\contentsline {subsection}{\numberline {3.1}Erreichbarkeitsspiele}{5}}
\@writefile{toc}{\contentsline {subsection}{\numberline {3.2}B\"uchi-Akzeptanz}{6}}
\@writefile{toc}{\contentsline {section}{\numberline {4}Ausblick und Zusammenfassung}{6}}
\@writefile{toc}{\contentsline {subsection}{\numberline {4.1}Zusammenfassung}{6}}
\@writefile{toc}{\contentsline {subsection}{\numberline {4.2}Ausblick}{6}}
\bibstyle{dinat}
\bibdata{mybib}
\bibcite{hans-riegel-1994}{{1}{1994}{{Hans und Riegel}}{{}}}
\bibcite{riegel-1993}{{2}{1993}{{Riegel}}{{}}}
